<?xml version="1.0" encoding="utf-8"?>
<!-- Generator: Adobe Illustrator 19.0.1, SVG Export Plug-In . SVG Version: 6.00 Build 0)  -->
<svg version="1.1" id="Слой_1" xmlns="http://www.w3.org/2000/svg" xmlns:xlink="http://www.w3.org/1999/xlink" x="0px" y="0px"
	 viewBox="-487 736 24 30" style="enable-background:new -487 736 24 30;" xml:space="preserve">
<g>
	<g>
		<g>
			<path d="M-485,749c0,0-0.1,0-0.1,0c-0.1,0-1.9-0.5-1.9-4c0-3.4,3.6-5.5,6-5.5c2.5,0,3,1.1,3,2c0,0.6-0.4,0.9-0.7,1.1
				c-0.2,0.1-0.3,0.2-0.3,0.4c0.3,0.2,2,0.6,5.5,0.6c0.3,0,0.5,0.2,0.5,0.5s-0.2,0.5-0.5,0.5h-8c-0.9,0-1.7,0.3-2.2,0.8
				c-1,1.1-0.8,3.1-0.8,3.1c0,0.2,0,0.3-0.2,0.4C-484.8,749-484.9,749-485,749z M-481,740.5c-1.7,0-5,1.6-5,4.5c0,1.2,0.2,2,0.5,2.4
				c0.1-0.8,0.3-1.9,1.1-2.7c0.7-0.8,1.7-1.2,2.9-1.2h1.6c-0.1-0.2-0.1-0.4-0.1-0.5c0-0.8,0.5-1.1,0.8-1.3c0.2-0.2,0.2-0.2,0.2-0.2
				C-479,741.3-479,740.5-481,740.5z"/>
		</g>
		<g>
			<path d="M-485,748c-0.1,0-0.2,0-0.2-0.1c-0.2-0.1-0.3-0.4-0.2-0.7c1-1.8,4.5-1.8,7.3-1.8l0.6,0c0.3,0,0.5,0.2,0.5,0.5
				s-0.2,0.5-0.5,0.5l-0.6,0c-2.3,0-5.7,0-6.4,1.2C-484.7,747.9-484.8,748-485,748z"/>
		</g>
		<g>
			<path d="M-480.5,758.5c-0.2,0-0.3-0.1-0.4-0.2c-0.1-0.1-0.6-1-0.6-3.8c0-1.6,0.6-2.4,1.1-3.1c0.5-0.7,0.9-1.2,0.9-2.4
				c0-1.4-0.4-2.3-0.4-2.3c-0.1-0.2,0-0.5,0.2-0.7c0.2-0.1,0.5,0,0.7,0.2c0,0,0.6,1,0.6,2.7c0,1.5-0.6,2.3-1.1,3
				c-0.5,0.7-0.9,1.2-0.9,2.5c0,1.5,0.2,2.4,0.3,2.8c0.8-0.4,2.2-1.4,2.2-3.3c0-0.2,0.2-0.4,0.4-0.5c0.2,0,0.5,0.1,0.6,0.3
				c0.4,1.1,2.5,2.5,3.9,3.3c-0.1-0.6-0.4-1.6-0.9-2.9c-0.1-0.2,0-0.5,0.2-0.6c0.2-0.1,0.5-0.1,0.6,0.1c0.7,0.9,4.1,1.5,6.6,1.7
				c-0.3-0.5-0.5-1.2-0.5-1.9c0-0.2,0.1-0.4,0.3-0.5c0.2-0.1,0.4,0,0.5,0.1c0.3,0.3,1,0.4,1.7,0.4c-0.6-1.1-1.6-3.5-1.6-8.1
				c0-6.1-5.3-7-8.5-7c-2.5,0-4.4,0.1-5.6,1.8c-0.2,0.2-0.5,0.3-0.7,0.1c-0.2-0.2-0.3-0.5-0.1-0.7c1.5-2,3.8-2.2,6.4-2.2
				c2.9,0,9.5,0.8,9.5,8c0,6.4,1.8,8.1,1.8,8.1c0.1,0.1,0.2,0.3,0.1,0.5s-0.2,0.3-0.4,0.4c-0.2,0-1.4,0.2-2.4-0.1
				c0.3,0.7,0.7,1.3,0.7,1.3c0.1,0.2,0.2,0.4,0.1,0.5c-0.1,0.2-0.2,0.3-0.5,0.3c-0.6,0-4.7-0.3-7-1.3c0.6,1.9,0.6,2.7,0.6,2.8
				c0,0.2-0.1,0.3-0.2,0.4c-0.1,0.1-0.3,0.1-0.5,0c-0.4-0.2-3.1-1.6-4.5-3.1c-0.7,2.2-3,3.1-3.1,3.1
				C-480.4,758.5-480.4,758.5-480.5,758.5z"/>
		</g>
		<g>
			<path d="M-478.5,741.5c-0.3,0-0.5-0.2-0.5-0.5s0.2-0.5,0.5-0.5c1.5,0,1.8-0.2,2-0.4c0.5-0.4,1-0.6,3-0.6c0.3,0,0.5,0.2,0.5,0.5
				s-0.2,0.5-0.5,0.5c-1.9,0-2.2,0.2-2.4,0.4C-476.3,741.3-476.8,741.5-478.5,741.5z"/>
		</g>
		<g>
			<circle cx="-475.5" cy="741" r="1"/>
		</g>
		<g>
			<circle cx="-481.5" cy="742" r="0.5"/>
		</g>
	</g>
	<g>
		<path d="M-470,749.5c-0.1,0-0.2,0-0.3-0.1c-1.3-0.8-1-2.4-0.8-3.3c0.1-0.3,0.1-0.5,0.1-0.7c0-0.3,0.2-0.5,0.5-0.5s0.5,0.2,0.5,0.5
			c0,0.3-0.1,0.5-0.1,0.9c-0.2,1-0.3,1.8,0.4,2.2c0.2,0.1,0.3,0.5,0.2,0.7C-469.7,749.4-469.8,749.5-470,749.5z"/>
	</g>
	<g>
		<path d="M-477.5,752.5c-0.2,0-0.4-0.2-0.5-0.4c-0.1-0.3,0.1-0.5,0.4-0.6c0.7-0.2,0.9-0.9,1.1-2.6c0-0.3,0.3-0.5,0.6-0.4
			c0.3,0,0.5,0.3,0.4,0.6c-0.3,1.7-0.5,3.1-1.9,3.4C-477.4,752.5-477.5,752.5-477.5,752.5z"/>
	</g>
	<g>
		<path d="M-470,754c-0.9,0-2.8-1.6-3-2.9c0-0.3,0.2-0.5,0.4-0.6c0.3,0,0.5,0.2,0.6,0.4c0.1,0.9,1.6,2,2,2.1c0.3,0,0.5,0.2,0.5,0.5
			C-469.5,753.8-469.7,754-470,754z"/>
	</g>
</g>
</svg>
