<?xml version="1.0" encoding="utf-8"?>
<!-- Generator: Adobe Illustrator 22.0.1, SVG Export Plug-In . SVG Version: 6.00 Build 0)  -->
<svg version="1.1" id="Слой_1" xmlns="http://www.w3.org/2000/svg" xmlns:xlink="http://www.w3.org/1999/xlink" x="0px" y="0px"
	 viewBox="0 0 100 100" style="enable-background:new 0 0 100 100;" xml:space="preserve">
<path d="M99.9,26.5C98.5,13.4,87.5,3.2,74,3.2c-10.8,0-20,6.6-24,15.9C46.1,9.8,36.8,3.2,26,3.2C12.5,3.2,1.5,13.4,0.1,26.5
	C0,27.4,0,28.3,0,29.2c0,31.6,38.8,46.5,50,67.6l0,0c11.2-21.1,50-36,50-67.6C100,28.3,100,27.4,99.9,26.5z"/>
</svg>
