<?xml version="1.0" encoding="utf-8"?>
<!-- Generator: Adobe Illustrator 22.0.1, SVG Export Plug-In . SVG Version: 6.00 Build 0)  -->
<svg version="1.1"
	 id="Слой_1" xmlns:cc="http://creativecommons.org/ns#" xmlns:dc="http://purl.org/dc/elements/1.1/" xmlns:inkscape="http://www.inkscape.org/namespaces/inkscape" xmlns:rdf="http://www.w3.org/1999/02/22-rdf-syntax-ns#" xmlns:sodipodi="http://sodipodi.sourceforge.net/DTD/sodipodi-0.dtd" xmlns:svg="http://www.w3.org/2000/svg"
	 xmlns="http://www.w3.org/2000/svg" xmlns:xlink="http://www.w3.org/1999/xlink" x="0px" y="0px" viewBox="0 0 100 100"
	 style="enable-background:new 0 0 100 100;" xml:space="preserve">
<path d="M49.9,0C36.7,0,26,10.7,26,23.9c0,13.2,10.7,31.4,23.9,31.4s23.9-18.2,23.9-31.4C73.8,10.7,63.2,0,49.9,0z M43.8,43.9
	l-1,2.6l-1.1-2.6l-1-2.6h4.2L43.8,43.9z M58.5,43.9l-1,2.6l-1-2.6l-1.1-2.5h4.2L58.5,43.9z"/>
<path d="M94.2,78c0,12.1-19.8,22-44.3,22S5.7,90.2,5.7,78c0-9,10.8-22.1,26.2-28.4c4.8,6.2,11.2,10.6,18.1,10.6S63.2,55.8,68,49.6
	C83.4,55.9,94.2,69.1,94.2,78z"/>
<path d="M94.6,43.8c-5.3-7.5-25.9,4.8-25.9,4.8s4.3-17.3,9.8-21.3S99.9,51.3,94.6,43.8z"/>
<path d="M31.4,48.4c0,0-20.6-12.2-25.9-4.8C0.1,51.1,16,23.2,21.5,27.1C27.1,31.1,31.4,48.4,31.4,48.4z"/>
</svg>
